EESchema Schematic File Version 4
LIBS:PrismDDIN18-cache
EELAYER 26 0
EELAYER END
$Descr A3 16535 11693
encoding utf-8
Sheet 1 1
Title "Direct Drive Arduino Nixie Clock IN-18"
Date "2017-06-04"
Rev "Rev 001"
Comp "Ian's Nixie Clocks"
Comment1 ""
Comment2 ""
Comment3 ""
Comment4 ""
$EndDescr
$Comp
L PrismDDIN18-rescue:IN-18 S10
U 1 1 58A13ED3
P 7300 6050
F 0 "S10" H 7100 6875 45  0000 L BNN
F 1 "IN-18" H 7300 6050 45  0001 L BNN
F 2 "NixieClockMaster:IN-18" H 7300 6050 60  0001 C CNN
F 3 "" H 7300 6050 60  0001 C CNN
	1    7300 6050
	1    0    0    -1  
$EndComp
$Comp
L PrismDDIN18-rescue:IN-18 M1
U 1 1 58A258F8
P 6050 6050
F 0 "M1" H 5850 6875 45  0000 L BNN
F 1 "IN-18" H 6050 6050 45  0001 L BNN
F 2 "NixieClockMaster:IN-18" H 6050 6050 60  0001 C CNN
F 3 "" H 6050 6050 60  0001 C CNN
	1    6050 6050
	1    0    0    -1  
$EndComp
$Comp
L PrismDDIN18-rescue:IN-18 M10
U 1 1 58A25A60
P 4800 6050
F 0 "M10" H 4600 6875 45  0000 L BNN
F 1 "IN-18" H 4800 6050 45  0001 L BNN
F 2 "NixieClockMaster:IN-18" H 4800 6050 60  0001 C CNN
F 3 "" H 4800 6050 60  0001 C CNN
	1    4800 6050
	1    0    0    -1  
$EndComp
$Comp
L PrismDDIN18-rescue:IN-18 S1
U 1 1 58A25AC1
P 8600 6050
F 0 "S1" H 8400 6875 45  0000 L BNN
F 1 "IN-18" H 8600 6050 45  0001 L BNN
F 2 "NixieClockMaster:IN-18" H 8600 6050 60  0001 C CNN
F 3 "" H 8600 6050 60  0001 C CNN
	1    8600 6050
	1    0    0    -1  
$EndComp
$Comp
L PrismDDIN18-rescue:IN-18 H10
U 1 1 58A25B0C
P 2200 6050
F 0 "H10" H 2000 6875 45  0000 L BNN
F 1 "IN-18" H 2200 6050 45  0001 L BNN
F 2 "NixieClockMaster:IN-18" H 2200 6050 60  0001 C CNN
F 3 "" H 2200 6050 60  0001 C CNN
	1    2200 6050
	1    0    0    -1  
$EndComp
$Comp
L PrismDDIN18-rescue:IN-18 H1
U 1 1 58A259F3
P 3550 6050
F 0 "H1" H 3350 6875 45  0000 L BNN
F 1 "IN-18" H 3550 6050 45  0001 L BNN
F 2 "NixieClockMaster:IN-18" H 3550 6050 60  0001 C CNN
F 3 "" H 3550 6050 60  0001 C CNN
	1    3550 6050
	1    0    0    -1  
$EndComp
$Comp
L PrismDDIN18-rescue:R R1
U 1 1 59343AA6
P 2600 5600
F 0 "R1" V 2680 5600 50  0000 C CNN
F 1 "10k" V 2600 5600 50  0000 C CNN
F 2 "NixieClockMaster:R_Short_P7.62mm_Horizontal" V 2530 5600 50  0001 C CNN
F 3 "" H 2600 5600 50  0000 C CNN
	1    2600 5600
	1    0    0    -1  
$EndComp
Wire Wire Line
	2500 5950 2600 5950
Wire Wire Line
	2600 5950 2600 5750
Wire Wire Line
	3900 5050 3900 5450
$Comp
L PrismDDIN18-rescue:R R2
U 1 1 59343B3B
P 3900 5600
F 0 "R2" V 3980 5600 50  0000 C CNN
F 1 "10k" V 3900 5600 50  0000 C CNN
F 2 "NixieClockMaster:R-0207_2V" V 3830 5600 50  0001 C CNN
F 3 "" H 3900 5600 50  0000 C CNN
	1    3900 5600
	1    0    0    -1  
$EndComp
Wire Wire Line
	3900 5750 3900 5950
Wire Wire Line
	3900 5950 3850 5950
$Comp
L PrismDDIN18-rescue:R R3
U 1 1 59343B93
P 5150 5600
F 0 "R3" V 5230 5600 50  0000 C CNN
F 1 "10k" V 5150 5600 50  0000 C CNN
F 2 "NixieClockMaster:R-0207_2V" V 5080 5600 50  0001 C CNN
F 3 "" H 5150 5600 50  0000 C CNN
	1    5150 5600
	1    0    0    -1  
$EndComp
$Comp
L PrismDDIN18-rescue:R R4
U 1 1 59343C0B
P 6400 5600
F 0 "R4" V 6480 5600 50  0000 C CNN
F 1 "10k" V 6400 5600 50  0000 C CNN
F 2 "NixieClockMaster:R-0207_2V" V 6330 5600 50  0001 C CNN
F 3 "" H 6400 5600 50  0000 C CNN
	1    6400 5600
	1    0    0    -1  
$EndComp
Wire Wire Line
	5100 5950 5150 5950
Wire Wire Line
	5150 5950 5150 5750
Wire Wire Line
	5150 5050 5150 5450
Connection ~ 3900 5050
Wire Wire Line
	6350 5950 6400 5950
Wire Wire Line
	6400 5950 6400 5750
Wire Wire Line
	6400 5050 6400 5450
Connection ~ 5150 5050
$Comp
L PrismDDIN18-rescue:R R5
U 1 1 59343CF9
P 7650 5600
F 0 "R5" V 7730 5600 50  0000 C CNN
F 1 "10k" V 7650 5600 50  0000 C CNN
F 2 "NixieClockMaster:R-0207_2V" V 7580 5600 50  0001 C CNN
F 3 "" H 7650 5600 50  0000 C CNN
	1    7650 5600
	1    0    0    -1  
$EndComp
$Comp
L PrismDDIN18-rescue:R R6
U 1 1 59343D67
P 8950 5600
F 0 "R6" V 9030 5600 50  0000 C CNN
F 1 "10k" V 8950 5600 50  0000 C CNN
F 2 "NixieClockMaster:R-0207_2V" V 8880 5600 50  0001 C CNN
F 3 "" H 8950 5600 50  0000 C CNN
	1    8950 5600
	1    0    0    -1  
$EndComp
Wire Wire Line
	8900 5950 8950 5950
Wire Wire Line
	8950 5950 8950 5750
Wire Wire Line
	7600 5950 7650 5950
Wire Wire Line
	7650 5950 7650 5750
Wire Wire Line
	7650 5050 7650 5450
Connection ~ 6400 5050
Connection ~ 7650 5050
NoConn ~ 8900 6150
NoConn ~ 7600 6150
NoConn ~ 6350 6150
NoConn ~ 5100 6150
NoConn ~ 3850 6150
NoConn ~ 2500 6150
$Comp
L PrismDDIN18-rescue:WS2812B LED1
U 1 1 59343E6D
P 2450 8000
F 0 "LED1" H 2450 7600 60  0000 C CNN
F 1 "WS2812B" H 2450 8400 60  0000 C CNN
F 2 "NixieClockMaster:WS2812B" V 2400 8000 60  0001 C CNN
F 3 "" V 2400 8000 60  0000 C CNN
	1    2450 8000
	1    0    0    -1  
$EndComp
$Comp
L PrismDDIN18-rescue:WS2812B LED2
U 1 1 59343ED1
P 3800 8000
F 0 "LED2" H 3800 7600 60  0000 C CNN
F 1 "WS2812B" H 3800 8400 60  0000 C CNN
F 2 "NixieClockMaster:WS2812B" V 3750 8000 60  0001 C CNN
F 3 "" V 3750 8000 60  0000 C CNN
	1    3800 8000
	1    0    0    -1  
$EndComp
$Comp
L PrismDDIN18-rescue:WS2812B LED3
U 1 1 593440B3
P 5050 8000
F 0 "LED3" H 5050 7600 60  0000 C CNN
F 1 "WS2812B" H 5050 8400 60  0000 C CNN
F 2 "NixieClockMaster:WS2812B" V 5000 8000 60  0001 C CNN
F 3 "" V 5000 8000 60  0000 C CNN
	1    5050 8000
	1    0    0    -1  
$EndComp
$Comp
L PrismDDIN18-rescue:WS2812B LED4
U 1 1 593440B9
P 6400 8000
F 0 "LED4" H 6400 7600 60  0000 C CNN
F 1 "WS2812B" H 6400 8400 60  0000 C CNN
F 2 "NixieClockMaster:WS2812B" V 6350 8000 60  0001 C CNN
F 3 "" V 6350 8000 60  0000 C CNN
	1    6400 8000
	1    0    0    -1  
$EndComp
$Comp
L PrismDDIN18-rescue:WS2812B LED5
U 1 1 59344193
P 7600 8000
F 0 "LED5" H 7600 7600 60  0000 C CNN
F 1 "WS2812B" H 7600 8400 60  0000 C CNN
F 2 "NixieClockMaster:WS2812B" V 7550 8000 60  0001 C CNN
F 3 "" V 7550 8000 60  0000 C CNN
	1    7600 8000
	1    0    0    -1  
$EndComp
$Comp
L PrismDDIN18-rescue:WS2812B LED6
U 1 1 59344199
P 8800 8000
F 0 "LED6" H 8800 7600 60  0000 C CNN
F 1 "WS2812B" H 8800 8400 60  0000 C CNN
F 2 "NixieClockMaster:WS2812B" V 8750 8000 60  0001 C CNN
F 3 "" V 8750 8000 60  0000 C CNN
	1    8800 8000
	1    0    0    -1  
$EndComp
Wire Wire Line
	2600 5050 3900 5050
Wire Wire Line
	8100 7800 8100 8000
Wire Wire Line
	8100 8000 8300 8000
Wire Wire Line
	8300 8000 8300 8200
Wire Wire Line
	6900 7800 6900 8000
Wire Wire Line
	6900 8000 7100 8000
Wire Wire Line
	7100 8000 7100 8200
Wire Wire Line
	5550 7800 5550 8000
Wire Wire Line
	5550 8000 5900 8000
Wire Wire Line
	5900 8000 5900 8200
Wire Wire Line
	4300 7800 4300 8000
Wire Wire Line
	4300 8000 4550 8000
Wire Wire Line
	4550 8000 4550 8200
Wire Wire Line
	2950 7800 2950 8000
Wire Wire Line
	2950 8000 3300 8000
Wire Wire Line
	3300 8000 3300 8200
Wire Wire Line
	2950 8100 2950 8200
$Comp
L power:GND #PWR01
U 1 1 59344759
P 2950 8350
F 0 "#PWR01" H 2950 8100 50  0001 C CNN
F 1 "GND" H 2950 8200 50  0000 C CNN
F 2 "" H 2950 8350 50  0000 C CNN
F 3 "" H 2950 8350 50  0000 C CNN
	1    2950 8350
	1    0    0    -1  
$EndComp
$Comp
L power:GND #PWR02
U 1 1 593447A1
P 4300 8350
F 0 "#PWR02" H 4300 8100 50  0001 C CNN
F 1 "GND" H 4300 8200 50  0000 C CNN
F 2 "" H 4300 8350 50  0000 C CNN
F 3 "" H 4300 8350 50  0000 C CNN
	1    4300 8350
	1    0    0    -1  
$EndComp
Wire Wire Line
	4300 8100 4300 8200
$Comp
L power:GND #PWR03
U 1 1 5934482F
P 5550 8350
F 0 "#PWR03" H 5550 8100 50  0001 C CNN
F 1 "GND" H 5550 8200 50  0000 C CNN
F 2 "" H 5550 8350 50  0000 C CNN
F 3 "" H 5550 8350 50  0000 C CNN
	1    5550 8350
	1    0    0    -1  
$EndComp
Wire Wire Line
	5550 8100 5550 8200
$Comp
L power:GND #PWR04
U 1 1 593448BE
P 6900 8350
F 0 "#PWR04" H 6900 8100 50  0001 C CNN
F 1 "GND" H 6900 8200 50  0000 C CNN
F 2 "" H 6900 8350 50  0000 C CNN
F 3 "" H 6900 8350 50  0000 C CNN
	1    6900 8350
	1    0    0    -1  
$EndComp
Wire Wire Line
	6900 8100 6900 8200
$Comp
L power:GND #PWR05
U 1 1 59344984
P 8100 8350
F 0 "#PWR05" H 8100 8100 50  0001 C CNN
F 1 "GND" H 8100 8200 50  0000 C CNN
F 2 "" H 8100 8350 50  0000 C CNN
F 3 "" H 8100 8350 50  0000 C CNN
	1    8100 8350
	1    0    0    -1  
$EndComp
Wire Wire Line
	8100 8100 8100 8200
$Comp
L power:GND #PWR06
U 1 1 59344AA9
P 9300 8350
F 0 "#PWR06" H 9300 8100 50  0001 C CNN
F 1 "GND" H 9300 8200 50  0000 C CNN
F 2 "" H 9300 8350 50  0000 C CNN
F 3 "" H 9300 8350 50  0000 C CNN
	1    9300 8350
	1    0    0    -1  
$EndComp
Wire Wire Line
	9300 8200 9300 8350
$Comp
L PrismDDIN18-rescue:C_Small C6
U 1 1 59344B45
P 8400 8000
F 0 "C6" H 8410 8070 50  0000 L CNN
F 1 "100nF" H 8410 7920 50  0000 L CNN
F 2 "NixieClockMaster:C025-024X044" H 8400 8000 50  0001 C CNN
F 3 "" H 8400 8000 50  0000 C CNN
	1    8400 8000
	1    0    0    -1  
$EndComp
Wire Wire Line
	8300 7650 8300 7800
Wire Wire Line
	8300 7900 8400 7900
Wire Wire Line
	8400 8100 8100 8100
Connection ~ 8100 8200
$Comp
L PrismDDIN18-rescue:C_Small C1
U 1 1 59344F5C
P 2050 8000
F 0 "C1" H 2060 8070 50  0000 L CNN
F 1 "100nF" H 2060 7920 50  0000 L CNN
F 2 "NixieClockMaster:C025-024X044" H 2050 8000 50  0001 C CNN
F 3 "" H 2050 8000 50  0000 C CNN
	1    2050 8000
	1    0    0    -1  
$EndComp
Wire Wire Line
	7100 7650 7100 7800
Wire Wire Line
	7100 7900 7200 7900
Wire Wire Line
	7200 8100 6900 8100
Connection ~ 6900 8200
Wire Wire Line
	5900 7650 5900 7800
Wire Wire Line
	5900 7900 6000 7900
Wire Wire Line
	6000 8100 5550 8100
Connection ~ 5550 8200
$Comp
L PrismDDIN18-rescue:C_Small C3
U 1 1 59345351
P 4650 8000
F 0 "C3" H 4660 8070 50  0000 L CNN
F 1 "100nF" H 4660 7920 50  0000 L CNN
F 2 "NixieClockMaster:C025-024X044" H 4650 8000 50  0001 C CNN
F 3 "" H 4650 8000 50  0000 C CNN
	1    4650 8000
	1    0    0    -1  
$EndComp
$Comp
L PrismDDIN18-rescue:C_Small C4
U 1 1 5934547F
P 6000 8000
F 0 "C4" H 6010 8070 50  0000 L CNN
F 1 "100nF" H 6010 7920 50  0000 L CNN
F 2 "NixieClockMaster:C025-024X044" H 6000 8000 50  0001 C CNN
F 3 "" H 6000 8000 50  0000 C CNN
	1    6000 8000
	1    0    0    -1  
$EndComp
$Comp
L PrismDDIN18-rescue:C_Small C5
U 1 1 59345485
P 7200 8000
F 0 "C5" H 7210 8070 50  0000 L CNN
F 1 "100nF" H 7210 7920 50  0000 L CNN
F 2 "NixieClockMaster:C025-024X044" H 7200 8000 50  0001 C CNN
F 3 "" H 7200 8000 50  0000 C CNN
	1    7200 8000
	1    0    0    -1  
$EndComp
$Comp
L PrismDDIN18-rescue:C_Small C2
U 1 1 59345AC1
P 3400 8000
F 0 "C2" H 3410 8070 50  0000 L CNN
F 1 "100nF" H 3410 7920 50  0000 L CNN
F 2 "NixieClockMaster:C025-024X044" H 3400 8000 50  0001 C CNN
F 3 "" H 3400 8000 50  0000 C CNN
	1    3400 8000
	1    0    0    -1  
$EndComp
Wire Wire Line
	4550 7650 4550 7800
Wire Wire Line
	4550 7900 4650 7900
Wire Wire Line
	4650 8100 4300 8100
Connection ~ 4300 8200
Wire Wire Line
	3300 7650 3300 7800
Wire Wire Line
	3300 7900 3400 7900
Wire Wire Line
	2050 8100 2950 8100
Connection ~ 2950 8200
Wire Wire Line
	1950 7650 1950 7800
Wire Wire Line
	1950 7900 2050 7900
Connection ~ 2950 8100
NoConn ~ 1950 8200
Text Notes 800  9350 0    70   ~ 0
Power regulator
$Comp
L PrismDDIN18-rescue:RCL_C-EU050-024X044 C11
U 1 1 59345978
P 2400 10500
F 0 "C11" H 2200 10300 70  0000 L BNN
F 1 "100nF" H 2050 10500 70  0000 L BNN
F 2 "NixieClockMaster:C025-024X044" H 2390 10290 70  0001 L TNN
F 3 "" H 2400 10500 60  0001 C CNN
	1    2400 10500
	1    0    0    1   
$EndComp
$Comp
L PrismDDIN18-rescue:CP C12
U 1 1 5934597D
P 4450 10200
F 0 "C12" H 4500 10050 70  0000 L BNN
F 1 "220uF 10V" V 4400 9800 70  0000 L BNN
F 2 "NixieClockMaster:C_Radial_D6.3_L11.2_P2.5" H 4440 9990 70  0001 L TNN
F 3 "" H 4450 10200 60  0001 C CNN
F 4 "Value" H 4300 9900 60  0001 C CNN "Fieldname"
F 5 "+" V 4427 10216 50  0000 L BNN "Field5"
	1    4450 10200
	1    0    0    -1  
$EndComp
$Comp
L power:GND #GND08
U 1 1 59345981
P 5100 10800
F 0 "#GND08" H 5000 10700 70  0001 L BNN
F 1 "GND" H 5000 10700 70  0001 L BNN
F 2 "" H 5100 10800 60  0001 C CNN
F 3 "" H 5100 10800 60  0001 C CNN
	1    5100 10800
	1    0    0    -1  
$EndComp
$Comp
L PrismDDIN18-rescue:LED_LED3MM LED7
U 1 1 59345987
P 4850 10400
F 0 "LED7" V 4990 10220 70  0000 L BNN
F 1 "Power" V 5075 10220 70  0000 L BNN
F 2 "NixieClockMaster:LED_3MM" H 4840 10190 70  0001 L TNN
F 3 "" H 4850 10400 60  0001 C CNN
	1    4850 10400
	1    0    0    -1  
$EndComp
$Comp
L PrismDDIN18-rescue:RCL_R-EU_0207_2V R8
U 1 1 59345996
P 4850 10000
F 0 "R8" H 4750 10050 70  0000 L BNN
F 1 "3k" H 4800 9850 70  0000 L BNN
F 2 "NixieClockMaster:R-0207_2V" H 4840 9790 70  0001 L TNN
F 3 "" H 4850 10000 60  0001 C CNN
	1    4850 10000
	0    1    1    0   
$EndComp
$Comp
L PrismDDIN18-rescue:RCL_R-EU_0207_2V R9
U 1 1 59345999
P 14700 4100
F 0 "R9" H 14600 4150 70  0000 L BNN
F 1 "10k" H 14600 3950 70  0000 L BNN
F 2 "NixieClockMaster:R-0207_2V" H 14690 3890 70  0001 L TNN
F 3 "" H 14700 4100 60  0001 C CNN
	1    14700 4100
	0    -1   -1   0   
$EndComp
$Comp
L PrismDDIN18-rescue:CONN_01X04 SV1
U 1 1 593459A3
P 850 10450
F 0 "SV1" H 801 10680 70  0000 L BNN
F 1 "PWR" H 800 10050 70  0000 L BNN
F 2 "NixieClockMaster:Header_MA04-1" H 840 10240 70  0001 L TNN
F 3 "" H 850 10450 60  0001 C CNN
	1    850  10450
	-1   0    0    1   
$EndComp
$Comp
L Connector_Generic:Conn_01x04 SV4
U 1 1 593459A4
P 14200 3100
F 0 "SV4" H 14150 2700 70  0000 L BNN
F 1 "CONN_RTC" H 14050 3350 70  0000 L BNN
F 2 "NixieClockMaster:Header_MA04-1" H 14190 2890 70  0001 L TNN
F 3 "" H 14200 3100 60  0001 C CNN
	1    14200 3100
	-1   0    0    1   
$EndComp
Text Label 13050 8500 0    65   ~ 0
BTN1
Text Label 14100 4050 0    65   ~ 0
BTN1
Text Label 14900 4400 0    65   ~ 0
DLS
Text Label 14950 8800 2    65   ~ 0
DLS
Text Label 14100 4150 0    65   ~ 0
DLS
Text Label 14100 4250 0    65   ~ 0
GND
Text Label 14600 2900 0    65   ~ 0
GND
Text Label 13050 8700 0    65   ~ 0
SCL
Text Label 14600 3200 0    65   ~ 0
SCL
Text Label 13050 8600 0    65   ~ 0
SDA
Text Label 14600 3100 0    65   ~ 0
SDA
Text Label 5300 9700 0    65   ~ 0
VCC
Text Label 14600 3000 0    65   ~ 0
3V3
Text Label 14100 3850 0    65   ~ 0
VCC
Text Label 1250 11000 0    65   ~ 0
VCC
Text Label 2500 9700 0    65   ~ 0
VIN
Text Label 14700 4300 3    20   ~ 0
DLS
$Comp
L PrismDDIN18-rescue:TEST_1P W1
U 1 1 593459AF
P 4850 9550
F 0 "W1" H 4850 9820 50  0000 C CNN
F 1 "VCC" H 4850 9750 50  0000 C CNN
F 2 "NixieClockMaster:TESTPAD_P1-13" H 5050 9550 50  0001 C CNN
F 3 "" H 5050 9550 50  0000 C CNN
	1    4850 9550
	1    0    0    -1  
$EndComp
$Comp
L PrismDDIN18-rescue:TEST_1P W2
U 1 1 593459B0
P 5350 10600
F 0 "W2" H 5350 10870 50  0000 C CNN
F 1 "GND" H 5350 10800 50  0000 C CNN
F 2 "NixieClockMaster:TESTPAD_P1-13" H 5550 10600 50  0001 C CNN
F 3 "" H 5550 10600 50  0000 C CNN
	1    5350 10600
	1    0    0    -1  
$EndComp
$Comp
L PrismDDIN18-rescue:D-RESCUE-KickstarterNixie D1
U 1 1 593459B3
P 1650 10200
F 0 "D1" H 1650 10300 70  0000 C CNN
F 1 "UF4007" H 1650 10050 70  0000 C CNN
F 2 "NixieClockMaster:Diode_DO-41_1N4001" H 1650 10200 50  0001 C CNN
F 3 "" H 1650 10200 50  0000 C CNN
	1    1650 10200
	-1   0    0    1   
$EndComp
Text Label 1350 10400 1    20   ~ 0
PWR_INPUT
Text Label 2500 10000 0    20   ~ 0
PWR_VIN
Text Label 1700 10700 0    20   ~ 0
PWR_GND_IN
$Comp
L PrismDDIN18-rescue:BARREL_JACK CON1
U 1 1 593459B5
P 13900 2000
F 0 "CON1" H 13900 2250 50  0000 C CNN
F 1 "BARREL_JACK" H 13900 1800 50  0000 C CNN
F 2 "NixieClockMaster:BARREL_JACK" H 13900 2000 50  0001 C CNN
F 3 "" H 13900 2000 50  0000 C CNN
	1    13900 2000
	1    0    0    -1  
$EndComp
Text Label 14950 1900 0    60   ~ 0
PWR_INPUT
$Comp
L power:GND #GND011
U 1 1 593459B6
P 14950 2200
F 0 "#GND011" H 14850 2100 70  0001 L BNN
F 1 "GND" H 14850 2000 70  0000 L BNN
F 2 "" H 14950 2200 60  0001 C CNN
F 3 "" H 14950 2200 60  0001 C CNN
	1    14950 2200
	1    0    0    -1  
$EndComp
$Comp
L PrismDDIN18-rescue:LM2596T-5 IC1
U 1 1 593459B8
P 3150 10100
F 0 "IC1" H 2750 10450 50  0000 L CNN
F 1 "LM2596T-5" H 2750 10350 50  0000 L CNN
F 2 "NixieClockMaster:TO220-5A" H 3450 9850 50  0001 C CIN
F 3 "" H 3150 10100 50  0000 C CNN
	1    3150 10100
	1    0    0    -1  
$EndComp
$Comp
L PrismDDIN18-rescue:D-RESCUE-KickstarterNixie D2
U 1 1 593459B9
P 3800 10450
F 0 "D2" H 3900 10300 70  0000 C CNN
F 1 "1N5819" H 3800 10600 70  0000 C CNN
F 2 "NixieClockMaster:Diode_DO-41_1N4001" H 3800 10450 50  0001 C CNN
F 3 "" H 3800 10450 50  0000 C CNN
	1    3800 10450
	0    1    1    0   
$EndComp
$Comp
L PrismDDIN18-rescue:RCL_L-US6000-XXX-RC L1
U 1 1 593459BA
P 4100 9700
F 0 "L1" V 4050 9650 70  0000 L BNN
F 1 "33uH" V 4250 9500 70  0000 L BNN
F 2 "NixieClockMaster:Inductor-33mH-TH-SMD" H 4090 9490 70  0001 L TNN
F 3 "" H 4100 9700 60  0001 C CNN
	1    4100 9700
	0    -1   -1   0   
$EndComp
$Comp
L Connector_Generic:Conn_01x05 SV2
U 1 1 593459D3
P 13700 4050
F 0 "SV2" H 13700 4400 50  0000 C CNN
F 1 "CONN_FRONT" V 13800 4050 50  0000 C CNN
F 2 "NixieClockMaster:Header_MA05-1" H 13700 4050 50  0001 C CNN
F 3 "" H 13700 4050 50  0000 C CNN
	1    13700 4050
	-1   0    0    1   
$EndComp
Wire Wire Line
	13900 4050 14100 4050
Wire Wire Line
	14700 4300 14700 4400
Wire Wire Line
	14700 4400 14900 4400
Wire Wire Line
	13900 4150 14100 4150
Wire Wire Line
	1250 10700 1900 10700
Wire Wire Line
	4850 10600 4850 10700
Wire Wire Line
	4450 10350 4450 10700
Wire Wire Line
	1050 10400 1250 10400
Wire Wire Line
	1250 10400 1250 10700
Connection ~ 4450 10700
Wire Wire Line
	14400 2900 14600 2900
Wire Wire Line
	1350 10500 1050 10500
Wire Wire Line
	1350 10200 1350 10500
Wire Wire Line
	4850 10200 4850 10300
Wire Wire Line
	14400 3200 14600 3200
Wire Wire Line
	14400 3100 14600 3100
Wire Wire Line
	4850 9550 4850 9700
Wire Wire Line
	14700 3800 14700 3900
Wire Wire Line
	4450 9450 4450 9700
Connection ~ 4850 9700
Connection ~ 4450 9700
Wire Wire Line
	14400 3000 14600 3000
Wire Wire Line
	1050 10600 1150 10600
Wire Wire Line
	1150 10600 1150 11000
Wire Wire Line
	1150 11000 1250 11000
Wire Wire Line
	2400 9700 2400 9850
Wire Wire Line
	2400 9700 2500 9700
Connection ~ 2400 10200
Wire Wire Line
	5100 10700 5100 10800
Wire Wire Line
	4400 9700 4450 9700
Wire Wire Line
	5350 10700 5350 10600
Wire Wire Line
	13900 4250 14100 4250
Wire Wire Line
	1500 10200 1350 10200
Wire Wire Line
	14200 1900 14950 1900
Wire Wire Line
	14200 2000 14200 2100
Wire Wire Line
	14200 2100 14950 2100
Wire Wire Line
	14950 2100 14950 2200
Wire Wire Line
	1800 10200 1900 10200
Wire Wire Line
	2400 10600 2400 10700
Connection ~ 2400 10700
Wire Wire Line
	3150 10400 3150 10500
Connection ~ 3150 10700
Wire Wire Line
	2650 10200 2600 10200
Wire Wire Line
	2600 10200 2600 10500
Wire Wire Line
	2600 10500 3150 10500
Connection ~ 3150 10500
Wire Wire Line
	2650 10000 2400 10000
Connection ~ 2400 10000
Wire Wire Line
	3800 10600 3800 10700
Connection ~ 3800 10700
Wire Wire Line
	3650 10200 3800 10200
Wire Wire Line
	3800 9700 3800 10200
Connection ~ 3800 10200
Wire Wire Line
	4450 9450 3700 9450
Wire Wire Line
	3700 9450 3700 10000
Wire Wire Line
	3700 10000 3650 10000
Wire Wire Line
	13900 3950 14100 3950
Wire Wire Line
	13900 3850 14100 3850
Text Label 14100 3950 0    60   ~ 0
PIR
Text Label 13050 8400 0    60   ~ 0
PIR
Text Notes 10250 6700 0    60   ~ 0
RTC (option)
Wire Notes Line
	12850 2100 12900 2100
Text Notes 14050 1550 0    60   ~ 0
Barrel Jack Input
Wire Notes Line
	12900 2550 12950 2550
Wire Notes Line
	450  9000 11450 9000
Wire Notes Line
	450  9000 450  9050
$Comp
L PrismDDIN18-rescue:TEST_1P W3
U 1 1 593459E3
P 11000 9350
F 0 "W3" H 11000 9620 50  0000 C CNN
F 1 "HV" H 11000 9550 50  0000 C CNN
F 2 "NixieClockMaster:TESTPAD_P1-13" H 11200 9350 50  0001 C CNN
F 3 "" H 11200 9350 50  0000 C CNN
	1    11000 9350
	1    0    0    -1  
$EndComp
Connection ~ 5350 10700
Wire Wire Line
	9300 7800 9500 7800
Text Label 9500 7800 0    60   ~ 0
LED_DATA
Text Label 13050 8800 0    60   ~ 0
LED_DATA
Wire Wire Line
	1950 7650 2000 7650
Connection ~ 1950 7800
Text Label 2000 7650 0    60   ~ 0
VCC
Wire Wire Line
	3300 7650 3350 7650
Connection ~ 3300 7800
Wire Wire Line
	4550 7650 4600 7650
Connection ~ 4550 7800
Text Label 3350 7650 0    60   ~ 0
VCC
Text Label 4600 7650 0    60   ~ 0
VCC
Wire Wire Line
	5900 7650 5950 7650
Connection ~ 5900 7800
Wire Wire Line
	7100 7650 7150 7650
Connection ~ 7100 7800
Text Label 5950 7650 0    60   ~ 0
VCC
Text Label 7150 7650 0    60   ~ 0
VCC
Wire Wire Line
	8300 7650 8350 7650
Connection ~ 8300 7800
Text Label 8350 7650 0    60   ~ 0
VCC
$Comp
L power:PWR_FLAG #FLG012
U 1 1 5935CC27
P 2100 9800
F 0 "#FLG012" H 2100 9895 50  0001 C CNN
F 1 "PWR_FLAG" H 2100 9980 50  0000 C CNN
F 2 "" H 2100 9800 50  0000 C CNN
F 3 "" H 2100 9800 50  0000 C CNN
	1    2100 9800
	1    0    0    -1  
$EndComp
Wire Wire Line
	2100 9800 2100 9850
Wire Wire Line
	2100 9850 2400 9850
Connection ~ 2400 9850
$Comp
L power:PWR_FLAG #FLG013
U 1 1 5935FCF8
P 5650 10550
F 0 "#FLG013" H 5650 10645 50  0001 C CNN
F 1 "PWR_FLAG" H 5650 10730 50  0000 C CNN
F 2 "" H 5650 10550 50  0000 C CNN
F 3 "" H 5650 10550 50  0000 C CNN
	1    5650 10550
	1    0    0    -1  
$EndComp
Wire Wire Line
	5650 10700 5650 10550
$Comp
L PrismDDIN18-rescue:CP C16
U 1 1 5934C6FD
P 1900 10450
F 0 "C16" H 1650 10300 70  0000 L BNN
F 1 "220uF 35V" H 1600 10000 70  0000 L BNN
F 2 "NixieClockMaster:C_Radial_D6.3_L11.2_P2.5" H 1890 10240 70  0001 L TNN
F 3 "" H 1900 10450 60  0001 C CNN
F 4 "Value" H 1750 10150 60  0001 C CNN "Fieldname"
F 5 "+" V 1877 10466 50  0000 L BNN "Field5"
	1    1900 10450
	1    0    0    -1  
$EndComp
Wire Wire Line
	1900 10300 1900 10200
Connection ~ 1900 10200
Wire Wire Line
	1900 10600 1900 10700
Connection ~ 1900 10700
$Comp
L PrismDDIN18-rescue:MC34063A U2
U 1 1 59370881
P 8200 10050
F 0 "U2" H 7900 10600 60  0000 L CNN
F 1 "MC34063A" H 8100 10050 60  0000 L CNN
F 2 "NixieClockMaster:MC34063_DIL8" H 8200 9550 60  0001 C CNN
F 3 "" H 8200 9550 60  0000 C CNN
	1    8200 10050
	1    0    0    -1  
$EndComp
Wire Wire Line
	7700 10450 7550 10450
Wire Wire Line
	7550 10450 7550 10650
$Comp
L PrismDDIN18-rescue:C C18
U 1 1 59371E26
P 8950 10650
F 0 "C18" H 8975 10750 50  0000 L CNN
F 1 "680pF" H 8975 10550 50  0000 L CNN
F 2 "NixieClockMaster:C025-024X044" H 8988 10500 50  0001 C CNN
F 3 "" H 8950 10650 50  0000 C CNN
	1    8950 10650
	1    0    0    -1  
$EndComp
Wire Wire Line
	8900 10450 8950 10450
Wire Wire Line
	8950 10450 8950 10500
$Comp
L power:GND #GND014
U 1 1 593720C0
P 8300 10900
F 0 "#GND014" H 8200 10800 70  0001 L BNN
F 1 "GND" H 8200 10700 70  0000 L BNN
F 2 "" H 8300 10900 60  0001 C CNN
F 3 "" H 8300 10900 60  0001 C CNN
	1    8300 10900
	1    0    0    -1  
$EndComp
Wire Wire Line
	8950 10850 8950 10800
Wire Wire Line
	7700 9650 7650 9650
Wire Wire Line
	7650 9400 7650 9650
Wire Wire Line
	7400 9750 7650 9750
Wire Wire Line
	8900 9650 8950 9650
Wire Wire Line
	8950 9650 8950 9400
Wire Wire Line
	7650 9400 8950 9400
Connection ~ 7650 9650
Wire Wire Line
	7200 10150 7650 10150
$Comp
L PrismDDIN18-rescue:R R14
U 1 1 59372FDF
P 7650 9950
F 0 "R14" V 7730 9950 50  0000 C CNN
F 1 "0R22 2W" V 7550 9950 50  0000 C CNN
F 2 "NixieClockMaster:R-0207_2V" V 7580 9950 50  0001 C CNN
F 3 "" H 7650 9950 50  0000 C CNN
	1    7650 9950
	1    0    0    -1  
$EndComp
Connection ~ 7650 9750
Wire Wire Line
	7650 10100 7650 10150
Connection ~ 7650 10150
Wire Wire Line
	8300 10900 8300 10850
Wire Wire Line
	7550 10850 8300 10850
Connection ~ 8300 10850
Text Label 7200 10150 0    60   ~ 0
VIN
$Comp
L PrismDDIN18-rescue:CP C17
U 1 1 593751E5
P 7400 10450
F 0 "C17" H 7500 10550 70  0000 L BNN
F 1 "220uF 35V" H 6950 10100 70  0000 L BNN
F 2 "NixieClockMaster:C_Radial_D6.3_L11.2_P2.5" H 7390 10240 70  0001 L TNN
F 3 "" H 7400 10450 60  0001 C CNN
F 4 "Value" H 7250 10150 60  0001 C CNN "Fieldname"
F 5 "+" V 7377 10466 50  0000 L BNN "Field5"
	1    7400 10450
	1    0    0    -1  
$EndComp
Wire Wire Line
	7400 9750 7400 10300
Wire Wire Line
	7400 10600 7400 10650
Wire Wire Line
	7400 10650 7550 10650
Connection ~ 7550 10650
$Comp
L PrismDDIN18-rescue:R R15
U 1 1 59375A59
P 9150 10050
F 0 "R15" V 9050 10050 50  0000 C CNN
F 1 "1k" V 9150 10050 50  0000 C CNN
F 2 "NixieClockMaster:R-0207_2V" V 9080 10050 50  0001 C CNN
F 3 "" H 9150 10050 50  0000 C CNN
	1    9150 10050
	1    0    0    -1  
$EndComp
Wire Wire Line
	9150 10850 9150 10200
Connection ~ 8950 10850
Wire Wire Line
	9150 9900 9150 9850
Wire Wire Line
	8900 9850 9150 9850
$Comp
L PrismDDIN18-rescue:C C19
U 1 1 5937602D
P 9350 10650
F 0 "C19" H 9375 10750 50  0000 L CNN
F 1 "100nF" H 9375 10550 50  0000 L CNN
F 2 "NixieClockMaster:C025-024X044" H 9388 10500 50  0001 C CNN
F 3 "" H 9350 10650 50  0000 C CNN
	1    9350 10650
	1    0    0    -1  
$EndComp
Wire Wire Line
	9350 10850 9350 10800
Connection ~ 9150 10850
$Comp
L PrismDDIN18-rescue:R R17
U 1 1 59376455
P 10450 10300
F 0 "R17" V 10530 10300 50  0000 C CNN
F 1 "2k2" V 10450 10300 50  0000 C CNN
F 2 "NixieClockMaster:R-0207_2V" V 10380 10300 50  0001 C CNN
F 3 "" H 10450 10300 50  0000 C CNN
	1    10450 10300
	1    0    0    -1  
$EndComp
Wire Wire Line
	10450 10000 10450 10100
$Comp
L PrismDDIN18-rescue:POT RV1
U 1 1 593766DB
P 10450 10650
F 0 "RV1" V 10275 10650 50  0000 C CNN
F 1 "5k" V 10350 10650 50  0000 C CNN
F 2 "NixieClockMaster:Potentiometer_Trimmer_Bourns_3296X" H 10450 10650 50  0001 C CNN
F 3 "" H 10450 10650 50  0000 C CNN
	1    10450 10650
	1    0    0    -1  
$EndComp
Wire Wire Line
	10450 10850 10450 10800
Connection ~ 9350 10850
Wire Wire Line
	10450 10450 10450 10500
Wire Wire Line
	10600 10850 10600 10650
Connection ~ 10450 10850
$Comp
L PrismDDIN18-rescue:R R16
U 1 1 59376C66
P 10450 9850
F 0 "R16" V 10530 9850 50  0000 C CNN
F 1 "390k" V 10450 9850 50  0000 C CNN
F 2 "NixieClockMaster:R-0207_2V" V 10380 9850 50  0001 C CNN
F 3 "" H 10450 9850 50  0000 C CNN
	1    10450 9850
	1    0    0    -1  
$EndComp
Connection ~ 10450 10100
$Comp
L PrismDDIN18-rescue:RCL_L-US6000-XXX-RC L2
U 1 1 59378335
P 9450 9400
F 0 "L2" V 9400 9350 70  0000 L BNN
F 1 "100uH" V 9600 9200 70  0000 L BNN
F 2 "NixieClockMaster:Inductor-100mH" H 9440 9190 70  0001 L TNN
F 3 "" H 9450 9400 60  0001 C CNN
	1    9450 9400
	0    -1   -1   0   
$EndComp
Connection ~ 8950 9400
$Comp
L PrismDDIN18-rescue:D-RESCUE-KickstarterNixie D4
U 1 1 59378EB5
P 10150 9400
F 0 "D4" H 10150 9500 70  0000 C CNN
F 1 "UF4007" H 10150 9250 70  0000 C CNN
F 2 "NixieClockMaster:Diode_DO-41_1N4001" H 10150 9400 50  0001 C CNN
F 3 "" H 10150 9400 50  0000 C CNN
	1    10150 9400
	-1   0    0    1   
$EndComp
Wire Wire Line
	10300 9400 10450 9400
Wire Wire Line
	10850 9400 10850 9850
$Comp
L PrismDDIN18-rescue:CP C20
U 1 1 5937970A
P 10850 10000
F 0 "C20" H 10950 10100 70  0000 L BNN
F 1 "2.2uF 400V" H 10850 9850 70  0000 L BNN
F 2 "NixieClockMaster:C_Radial_D6.3_L11.2_P2.5" H 10840 9790 70  0001 L TNN
F 3 "" H 10850 10000 60  0001 C CNN
F 4 "Value" H 10700 9700 60  0001 C CNN "Fieldname"
F 5 "+" V 10827 10016 50  0000 L BNN "Field5"
	1    10850 10000
	1    0    0    -1  
$EndComp
Wire Wire Line
	10850 10850 10850 10150
Connection ~ 10600 10850
$Comp
L PrismDDIN18-rescue:D-RESCUE-KickstarterNixie D3
U 1 1 59379D8F
P 9450 9850
F 0 "D3" H 9450 9950 70  0000 C CNN
F 1 "1N5819" H 9450 9700 50  0000 C CNN
F 2 "NixieClockMaster:Diode_DO-41_1N4001" H 9450 9850 50  0001 C CNN
F 3 "" H 9450 9850 50  0000 C CNN
	1    9450 9850
	-1   0    0    1   
$EndComp
Connection ~ 9150 9850
$Comp
L Device:Q_PNP_CBE Q7
U 1 1 5937A70F
P 9550 10100
F 0 "Q7" H 9750 10100 50  0000 L CNN
F 1 "2N3906" H 9700 10200 50  0000 L CNN
F 2 "NixieClockMaster:2N7000_TO92" H 9750 10200 50  0001 C CNN
F 3 "" H 9550 10100 50  0000 C CNN
	1    9550 10100
	1    0    0    1   
$EndComp
Wire Wire Line
	9600 9850 9650 9850
Wire Wire Line
	9650 9850 9650 9900
Wire Wire Line
	9250 10100 9350 10100
Wire Wire Line
	9250 10100 9250 9850
Connection ~ 9250 9850
Wire Wire Line
	8900 10350 9350 10350
Wire Wire Line
	9350 10350 9350 10500
Wire Wire Line
	9650 10300 9650 10850
Connection ~ 9650 10850
Wire Wire Line
	10350 10350 10350 10100
Wire Wire Line
	10350 10100 10450 10100
Connection ~ 9350 10350
Wire Wire Line
	9750 9400 9800 9400
Wire Wire Line
	10450 9700 10450 9400
Connection ~ 10450 9400
$Comp
L PrismDDIN18-rescue:IRF540N-RESCUE-DDIN18 Q6
U 1 1 5937F7A9
P 9900 9800
F 0 "Q6" H 10100 9650 50  0000 L CNN
F 1 "IRF640" H 10050 9550 50  0000 L CNN
F 2 "NixieClockMaster:TO-220-3_H" H 10150 9725 50  0001 L CIN
F 3 "" H 9900 9800 50  0000 L CNN
	1    9900 9800
	1    0    0    -1  
$EndComp
Connection ~ 9650 9850
Wire Wire Line
	10000 9600 10000 9550
Wire Wire Line
	10000 9550 9800 9550
Wire Wire Line
	9800 9550 9800 9400
Connection ~ 9800 9400
Wire Wire Line
	10000 10000 10000 10850
Connection ~ 10000 10850
Connection ~ 10850 9400
Text Label 11250 9400 0    60   ~ 0
HV
Wire Wire Line
	1050 10300 1150 10300
Wire Wire Line
	1150 10300 1150 9750
Wire Wire Line
	1150 9750 1350 9750
Text Label 1350 9750 0    60   ~ 0
HV
Connection ~ 2600 5050
Text Label 2300 5050 0    60   ~ 0
HV
Wire Notes Line
	6950 9000 6950 11200
Text Notes 7200 9250 0    70   ~ 0
High Voltage Generator
Wire Notes Line
	11450 6600 11450 11200
$Comp
L PrismDDIN18-rescue:HV5622 U3
U 1 1 599741F6
P 6750 5600
F 0 "U3" V 5600 2800 60  0000 C CNN
F 1 "HV5622" V 5600 2350 60  0000 C CNN
F 2 "Sockets:PLCC44" H 6750 5600 60  0001 C CNN
F 3 "" H 6750 5600 60  0001 C CNN
	1    6750 5600
	-1   0    0    1   
$EndComp
$Comp
L PrismDDIN18-rescue:HV5622 U4
U 1 1 59974A30
P 9900 5600
F 0 "U4" V 8750 2800 60  0000 C CNN
F 1 "HV5622" V 8750 2350 60  0000 C CNN
F 2 "Sockets:PLCC44" H 9900 5600 60  0001 C CNN
F 3 "" H 9900 5600 60  0001 C CNN
	1    9900 5600
	-1   0    0    1   
$EndComp
Wire Wire Line
	1550 5550 1800 5550
Wire Wire Line
	1550 5650 1800 5650
Wire Wire Line
	1550 5750 1800 5750
Wire Wire Line
	1550 5850 1800 5850
Wire Wire Line
	1550 5950 1800 5950
Wire Wire Line
	1550 6050 1800 6050
Wire Wire Line
	1550 6150 1800 6150
Wire Wire Line
	1550 6250 1800 6250
Wire Wire Line
	1550 6350 1800 6350
Wire Wire Line
	1550 6450 1800 6450
Text Label 1550 6450 0    60   ~ 0
H10_0
Text Label 1550 5550 0    60   ~ 0
H10_1
Text Label 1550 5650 0    60   ~ 0
H10_2
Text Label 1550 5750 0    60   ~ 0
H10_3
Text Label 1550 5850 0    60   ~ 0
H10_4
Text Label 1550 5950 0    60   ~ 0
H10_5
Text Label 1550 6050 0    60   ~ 0
H10_6
Text Label 1550 6150 0    60   ~ 0
H10_7
Text Label 1550 6250 0    60   ~ 0
H10_8
Text Label 1550 6350 0    60   ~ 0
H10_9
Text Label 6800 900  0    60   ~ 0
H10_1
Wire Wire Line
	6800 900  7050 900 
Wire Wire Line
	7050 1000 6800 1000
Wire Wire Line
	6800 1100 7050 1100
Wire Wire Line
	7050 1200 6800 1200
Wire Wire Line
	7050 1300 6800 1300
Wire Wire Line
	7050 1400 6800 1400
Wire Wire Line
	7050 1500 6800 1500
Wire Wire Line
	7050 1600 6800 1600
Wire Wire Line
	7050 1700 6800 1700
Text Label 6800 1000 0    60   ~ 0
H10_2
Text Label 6800 1100 0    60   ~ 0
H10_3
Text Label 6800 1200 0    60   ~ 0
H10_4
Text Label 6800 1300 0    60   ~ 0
H10_5
Text Label 6800 1400 0    60   ~ 0
H10_6
Text Label 6800 1500 0    60   ~ 0
H10_7
Text Label 6800 1600 0    60   ~ 0
H10_8
Text Label 6800 1700 0    60   ~ 0
H10_9
Text Label 6800 1800 0    60   ~ 0
H10_0
Wire Wire Line
	6800 1800 7050 1800
Wire Wire Line
	7050 1900 6800 1900
Wire Wire Line
	7050 2000 6800 2000
Wire Wire Line
	7050 2100 6800 2100
Wire Wire Line
	7050 2200 6800 2200
Wire Wire Line
	7050 2300 6800 2300
Wire Wire Line
	7050 2400 6800 2400
Wire Wire Line
	7050 2500 6800 2500
Wire Wire Line
	7050 2600 6800 2600
Wire Wire Line
	7050 2700 6800 2700
Text Label 6800 1900 0    60   ~ 0
H1_1
Text Label 6800 2000 0    60   ~ 0
H1_2
Text Label 6800 2100 0    60   ~ 0
H1_3
Text Label 6800 2200 0    60   ~ 0
H1_4
Text Label 6800 2300 0    60   ~ 0
H1_5
Text Label 6800 2400 0    60   ~ 0
H1_6
Text Label 6800 2500 0    60   ~ 0
H1_7
Text Label 6800 2600 0    60   ~ 0
H1_8
Text Label 6800 2700 0    60   ~ 0
H1_9
Text Label 6800 2800 0    60   ~ 0
H1_0
Text Label 6800 2900 0    60   ~ 0
M10_1
Text Label 6800 3000 0    60   ~ 0
M10_2
Text Label 6800 3100 0    60   ~ 0
M10_3
Text Label 6800 3200 0    60   ~ 0
M10_4
Text Label 6800 3300 0    60   ~ 0
M10_5
Text Label 6800 3400 0    60   ~ 0
M10_6
Text Label 6800 3500 0    60   ~ 0
M10_7
Text Label 6800 3600 0    60   ~ 0
M10_8
Text Label 6800 3700 0    60   ~ 0
M10_9
Text Label 6800 3800 0    60   ~ 0
M10_0
Wire Wire Line
	6800 3800 7050 3800
Wire Wire Line
	7050 3700 6800 3700
Wire Wire Line
	6800 3600 7050 3600
Wire Wire Line
	7050 3500 6800 3500
Wire Wire Line
	6800 3400 7050 3400
Wire Wire Line
	7050 3300 6800 3300
Wire Wire Line
	6800 2800 7050 2800
Wire Wire Line
	6800 2900 7050 2900
Wire Wire Line
	6800 3000 7050 3000
Wire Wire Line
	7050 3100 6800 3100
Wire Wire Line
	6800 3200 7050 3200
Wire Wire Line
	2900 5550 3150 5550
Wire Wire Line
	2900 5650 3150 5650
Wire Wire Line
	2900 5750 3150 5750
Wire Wire Line
	2900 5850 3150 5850
Wire Wire Line
	2900 5950 3150 5950
Wire Wire Line
	2900 6050 3150 6050
Wire Wire Line
	2900 6150 3150 6150
Wire Wire Line
	2900 6250 3150 6250
Wire Wire Line
	2900 6350 3150 6350
Wire Wire Line
	2900 6450 3150 6450
Text Label 2900 6450 0    60   ~ 0
H1_0
Text Label 2900 5550 0    60   ~ 0
H1_1
Text Label 2900 5650 0    60   ~ 0
H1_2
Text Label 2900 5750 0    60   ~ 0
H1_3
Text Label 2900 5850 0    60   ~ 0
H1_4
Text Label 2900 5950 0    60   ~ 0
H1_5
Text Label 2900 6050 0    60   ~ 0
H1_6
Text Label 2900 6150 0    60   ~ 0
H1_7
Text Label 2900 6250 0    60   ~ 0
H1_8
Text Label 2900 6350 0    60   ~ 0
H1_9
Wire Wire Line
	4150 5550 4400 5550
Wire Wire Line
	4150 5650 4400 5650
Wire Wire Line
	4150 5750 4400 5750
Wire Wire Line
	4150 5850 4400 5850
Wire Wire Line
	4150 5950 4400 5950
Wire Wire Line
	4150 6050 4400 6050
Wire Wire Line
	4150 6150 4400 6150
Wire Wire Line
	4150 6250 4400 6250
Wire Wire Line
	4150 6350 4400 6350
Wire Wire Line
	4150 6450 4400 6450
Text Label 4150 6450 0    60   ~ 0
M10_0
Text Label 4150 5550 0    60   ~ 0
M10_1
Text Label 4150 5650 0    60   ~ 0
M10_2
Text Label 4150 5750 0    60   ~ 0
M10_3
Text Label 4150 5850 0    60   ~ 0
M10_4
Text Label 4150 5950 0    60   ~ 0
M10_5
Text Label 4150 6050 0    60   ~ 0
M10_6
Text Label 4150 6150 0    60   ~ 0
M10_7
Text Label 4150 6250 0    60   ~ 0
M10_8
Text Label 4150 6350 0    60   ~ 0
M10_9
Text Label 9950 900  0    60   ~ 0
M1_1
Wire Wire Line
	9950 900  10200 900 
Wire Wire Line
	10200 1000 9950 1000
Wire Wire Line
	9950 1100 10200 1100
Wire Wire Line
	10200 1200 9950 1200
Wire Wire Line
	10200 1300 9950 1300
Wire Wire Line
	10200 1400 9950 1400
Wire Wire Line
	10200 1500 9950 1500
Wire Wire Line
	10200 1600 9950 1600
Wire Wire Line
	10200 1700 9950 1700
Text Label 9950 1000 0    60   ~ 0
M1_2
Text Label 9950 1100 0    60   ~ 0
M1_3
Text Label 9950 1200 0    60   ~ 0
M1_4
Text Label 9950 1300 0    60   ~ 0
M1_5
Text Label 9950 1400 0    60   ~ 0
M1_6
Text Label 9950 1500 0    60   ~ 0
M1_7
Text Label 9950 1600 0    60   ~ 0
M1_8
Text Label 9950 1700 0    60   ~ 0
M1_9
Text Label 9950 1800 0    60   ~ 0
M1_0
Wire Wire Line
	9950 1800 10200 1800
Wire Wire Line
	10200 1900 9950 1900
Wire Wire Line
	10200 2000 9950 2000
Wire Wire Line
	10200 2100 9950 2100
Wire Wire Line
	10200 2200 9950 2200
Wire Wire Line
	10200 2300 9950 2300
Wire Wire Line
	10200 2400 9950 2400
Wire Wire Line
	10200 2500 9950 2500
Wire Wire Line
	10200 2600 9950 2600
Wire Wire Line
	10200 2700 9950 2700
Text Label 9950 1900 0    60   ~ 0
S10_1
Text Label 9950 2000 0    60   ~ 0
S10_2
Text Label 9950 2100 0    60   ~ 0
S10_3
Text Label 9950 2200 0    60   ~ 0
S10_4
Text Label 9950 2300 0    60   ~ 0
S10_5
Text Label 9950 2400 0    60   ~ 0
S10_6
Text Label 9950 2500 0    60   ~ 0
S10_7
Text Label 9950 2600 0    60   ~ 0
S10_8
Text Label 9950 2700 0    60   ~ 0
S10_9
Text Label 9950 2800 0    60   ~ 0
S10_0
Text Label 9950 2900 0    60   ~ 0
S1_1
Text Label 9950 3000 0    60   ~ 0
S1_2
Text Label 9950 3100 0    60   ~ 0
S1_3
Text Label 9950 3200 0    60   ~ 0
S1_4
Text Label 9950 3300 0    60   ~ 0
S1_5
Text Label 9950 3400 0    60   ~ 0
S1_6
Text Label 9950 3500 0    60   ~ 0
S1_7
Text Label 9950 3600 0    60   ~ 0
S1_8
Text Label 9950 3700 0    60   ~ 0
S1_9
Text Label 9950 3800 0    60   ~ 0
S1_0
Wire Wire Line
	9950 3800 10200 3800
Wire Wire Line
	10200 3700 9950 3700
Wire Wire Line
	9950 3600 10200 3600
Wire Wire Line
	10200 3500 9950 3500
Wire Wire Line
	9950 3400 10200 3400
Wire Wire Line
	10200 3300 9950 3300
Wire Wire Line
	9950 2800 10200 2800
Wire Wire Line
	9950 2900 10200 2900
Wire Wire Line
	9950 3000 10200 3000
Wire Wire Line
	10200 3100 9950 3100
Wire Wire Line
	9950 3200 10200 3200
Wire Wire Line
	11900 1500 12050 1500
Wire Wire Line
	12050 1500 12050 1650
Wire Wire Line
	11900 2000 12100 2000
Wire Wire Line
	11900 2100 12100 2100
Wire Wire Line
	11900 2200 12100 2200
Wire Wire Line
	11900 2300 12100 2300
Wire Wire Line
	11900 2700 12100 2700
Wire Wire Line
	12100 2600 12100 2700
Wire Wire Line
	12100 2800 11900 2800
Connection ~ 12100 2700
Text Label 12100 2000 0    60   ~ 0
BLANK
Text Label 12100 2100 0    60   ~ 0
LATCH
Text Label 12100 2400 0    60   ~ 0
DATA2
Text Label 12100 2300 0    60   ~ 0
CLK
$Comp
L power:GND #GND015
U 1 1 59990A97
P 12050 1650
F 0 "#GND015" H 11950 1550 70  0001 L BNN
F 1 "GND" H 11950 1450 70  0000 L BNN
F 2 "" H 12050 1650 60  0001 C CNN
F 3 "" H 12050 1650 60  0001 C CNN
	1    12050 1650
	1    0    0    -1  
$EndComp
Text Label 12100 2600 0    60   ~ 0
VCC
Wire Wire Line
	8750 1500 8900 1500
Wire Wire Line
	8900 1500 8900 1650
Wire Wire Line
	8750 2000 8950 2000
Wire Wire Line
	8750 2100 8950 2100
Wire Wire Line
	8750 2200 8950 2200
Wire Wire Line
	8750 2300 8950 2300
Wire Wire Line
	8750 2700 8950 2700
Wire Wire Line
	8950 2600 8950 2700
Wire Wire Line
	8950 2800 8750 2800
Connection ~ 8950 2700
Text Label 8950 2000 0    60   ~ 0
BLANK
Text Label 8950 2100 0    60   ~ 0
LATCH
Text Label 8950 2200 0    60   ~ 0
DATA2
Text Label 8950 2300 0    60   ~ 0
CLK
$Comp
L power:GND #GND016
U 1 1 59990F81
P 8900 1650
F 0 "#GND016" H 8800 1550 70  0001 L BNN
F 1 "GND" H 8800 1450 70  0000 L BNN
F 2 "" H 8900 1650 60  0001 C CNN
F 3 "" H 8900 1650 60  0001 C CNN
	1    8900 1650
	1    0    0    -1  
$EndComp
Text Label 8950 2600 0    60   ~ 0
VCC
Text Label 14950 8400 2    60   ~ 0
DATA1_3V3
Text Label 14950 8500 2    60   ~ 0
CLK_3V3
Text Label 14950 8600 2    60   ~ 0
LATCH_3V3
Text Label 14950 8700 2    60   ~ 0
BLANK_3V3
Wire Wire Line
	6650 5550 6900 5550
Wire Wire Line
	6650 5650 6900 5650
Wire Wire Line
	6650 5750 6900 5750
Wire Wire Line
	6650 5850 6900 5850
Wire Wire Line
	6650 5950 6900 5950
Wire Wire Line
	6650 6050 6900 6050
Wire Wire Line
	6650 6150 6900 6150
Wire Wire Line
	6650 6250 6900 6250
Wire Wire Line
	6650 6350 6900 6350
Wire Wire Line
	6650 6450 6900 6450
Text Label 6650 6450 0    60   ~ 0
S10_0
Text Label 6650 5550 0    60   ~ 0
S10_1
Text Label 6650 5650 0    60   ~ 0
S10_2
Text Label 6650 5750 0    60   ~ 0
S10_3
Text Label 6650 5850 0    60   ~ 0
S10_4
Text Label 6650 5950 0    60   ~ 0
S10_5
Text Label 6650 6050 0    60   ~ 0
S10_6
Text Label 6650 6150 0    60   ~ 0
S10_7
Text Label 6650 6250 0    60   ~ 0
S10_8
Text Label 6650 6350 0    60   ~ 0
S10_9
Wire Wire Line
	5400 5550 5650 5550
Wire Wire Line
	5400 5650 5650 5650
Wire Wire Line
	5400 5750 5650 5750
Wire Wire Line
	5400 5850 5650 5850
Wire Wire Line
	5400 5950 5650 5950
Wire Wire Line
	5400 6050 5650 6050
Wire Wire Line
	5400 6150 5650 6150
Wire Wire Line
	5400 6250 5650 6250
Wire Wire Line
	5400 6350 5650 6350
Wire Wire Line
	5400 6450 5650 6450
Text Label 5400 6450 0    60   ~ 0
M1_0
Text Label 5400 5550 0    60   ~ 0
M1_1
Text Label 5400 5650 0    60   ~ 0
M1_2
Text Label 5400 5750 0    60   ~ 0
M1_3
Text Label 5400 5850 0    60   ~ 0
M1_4
Text Label 5400 5950 0    60   ~ 0
M1_5
Text Label 5400 6050 0    60   ~ 0
M1_6
Text Label 5400 6150 0    60   ~ 0
M1_7
Text Label 5400 6250 0    60   ~ 0
M1_8
Text Label 5400 6350 0    60   ~ 0
M1_9
Wire Wire Line
	7950 5550 8200 5550
Wire Wire Line
	7950 5650 8200 5650
Wire Wire Line
	7950 5750 8200 5750
Wire Wire Line
	7950 5850 8200 5850
Wire Wire Line
	7950 5950 8200 5950
Wire Wire Line
	7950 6050 8200 6050
Wire Wire Line
	7950 6150 8200 6150
Wire Wire Line
	7950 6250 8200 6250
Wire Wire Line
	7950 6350 8200 6350
Wire Wire Line
	7950 6450 8200 6450
Text Label 7950 6450 0    60   ~ 0
S1_0
Text Label 7950 5550 0    60   ~ 0
S1_1
Text Label 7950 5650 0    60   ~ 0
S1_2
Text Label 7950 5750 0    60   ~ 0
S1_3
Text Label 7950 5850 0    60   ~ 0
S1_4
Text Label 7950 5950 0    60   ~ 0
S1_5
Text Label 7950 6050 0    60   ~ 0
S1_6
Text Label 7950 6150 0    60   ~ 0
S1_7
Text Label 7950 6250 0    60   ~ 0
S1_8
Text Label 7950 6350 0    60   ~ 0
S1_9
NoConn ~ 8750 2400
$Comp
L PrismDDIN18-rescue:LED D8
U 1 1 5ADCD452
P 9400 3650
F 0 "D8" H 9400 3750 50  0000 C CNN
F 1 "LED" H 9400 3550 50  0000 C CNN
F 2 "NixieClockMaster:LED-5MM-Centred" H 9400 3650 50  0001 C CNN
F 3 "" H 9400 3650 50  0001 C CNN
	1    9400 3650
	0    -1   -1   0   
$EndComp
$Comp
L PrismDDIN18-rescue:LED D7
U 1 1 5ADCD92D
P 9650 3650
F 0 "D7" H 9650 3750 50  0000 C CNN
F 1 "LED" H 9650 3550 50  0000 C CNN
F 2 "NixieClockMaster:LED-5MM-Centred" H 9650 3650 50  0001 C CNN
F 3 "" H 9650 3650 50  0001 C CNN
	1    9650 3650
	0    -1   -1   0   
$EndComp
$Comp
L PrismDDIN18-rescue:R R21
U 1 1 5ADCE6C6
P 9400 3250
F 0 "R21" V 9480 3250 50  0000 C CNN
F 1 "10k" V 9400 3250 50  0000 C CNN
F 2 "NixieClockMaster:R-0207_2V" V 9330 3250 50  0001 C CNN
F 3 "" H 9400 3250 50  0000 C CNN
	1    9400 3250
	-1   0    0    1   
$EndComp
$Comp
L PrismDDIN18-rescue:LED D6
U 1 1 5ADCED9D
P 6250 3650
F 0 "D6" H 6250 3750 50  0000 C CNN
F 1 "LED" H 6250 3550 50  0000 C CNN
F 2 "NixieClockMaster:LED-5MM-Centred" H 6250 3650 50  0001 C CNN
F 3 "" H 6250 3650 50  0001 C CNN
	1    6250 3650
	0    -1   -1   0   
$EndComp
$Comp
L PrismDDIN18-rescue:LED D5
U 1 1 5ADCEDA3
P 6500 3650
F 0 "D5" H 6500 3750 50  0000 C CNN
F 1 "LED" H 6500 3550 50  0000 C CNN
F 2 "NixieClockMaster:LED-5MM-Centred" H 6500 3650 50  0001 C CNN
F 3 "" H 6500 3650 50  0001 C CNN
	1    6500 3650
	0    -1   -1   0   
$EndComp
$Comp
L PrismDDIN18-rescue:R R18
U 1 1 5ADCF7B9
P 6250 3250
F 0 "R18" V 6330 3250 50  0000 C CNN
F 1 "10k" V 6250 3250 50  0000 C CNN
F 2 "NixieClockMaster:R-0207_2V" V 6180 3250 50  0001 C CNN
F 3 "" H 6250 3250 50  0000 C CNN
	1    6250 3250
	-1   0    0    1   
$EndComp
$Comp
L PrismDDIN18-rescue:R R20
U 1 1 5ADCFE86
P 9650 3250
F 0 "R20" V 9730 3250 50  0000 C CNN
F 1 "10k" V 9650 3250 50  0000 C CNN
F 2 "NixieClockMaster:R-0207_2V" V 9580 3250 50  0001 C CNN
F 3 "" H 9650 3250 50  0000 C CNN
	1    9650 3250
	-1   0    0    1   
$EndComp
$Comp
L PrismDDIN18-rescue:R R19
U 1 1 5ADD0912
P 6500 3250
F 0 "R19" V 6580 3250 50  0000 C CNN
F 1 "10k" V 6500 3250 50  0000 C CNN
F 2 "NixieClockMaster:R-0207_2V" V 6430 3250 50  0001 C CNN
F 3 "" H 6500 3250 50  0000 C CNN
	1    6500 3250
	-1   0    0    1   
$EndComp
Wire Wire Line
	11000 9350 11000 9400
Connection ~ 11000 9400
Wire Wire Line
	3900 5050 5150 5050
Wire Wire Line
	5150 5050 6400 5050
Wire Wire Line
	6400 5050 7650 5050
Wire Wire Line
	7650 5050 8950 5050
Wire Wire Line
	8100 8200 8100 8350
Wire Wire Line
	6900 8200 6900 8350
Wire Wire Line
	5550 8200 5550 8350
Wire Wire Line
	4300 8200 4300 8350
Wire Wire Line
	2950 8200 2950 8350
Wire Wire Line
	2950 8100 3400 8100
Wire Wire Line
	4450 10700 4850 10700
Wire Wire Line
	4850 9700 4850 9800
Wire Wire Line
	4450 9700 4450 10050
Wire Wire Line
	4450 9700 4850 9700
Wire Wire Line
	2400 10200 2400 10300
Wire Wire Line
	5100 10700 5350 10700
Wire Wire Line
	2400 10700 3150 10700
Wire Wire Line
	3150 10700 3800 10700
Wire Wire Line
	3150 10500 3150 10700
Wire Wire Line
	2400 10000 2400 10200
Wire Wire Line
	3800 10200 3800 10300
Wire Wire Line
	5350 10700 5650 10700
Wire Wire Line
	1950 7800 1950 7900
Wire Wire Line
	3300 7800 3300 7900
Wire Wire Line
	4550 7800 4550 7900
Wire Wire Line
	5900 7800 5900 7900
Wire Wire Line
	7100 7800 7100 7900
Wire Wire Line
	8300 7800 8300 7900
Wire Wire Line
	2400 9850 2400 10000
Wire Wire Line
	1900 10200 2400 10200
Wire Wire Line
	1900 10700 2400 10700
Wire Wire Line
	7650 9650 7650 9750
Wire Wire Line
	7650 9750 7700 9750
Wire Wire Line
	7650 9750 7650 9800
Wire Wire Line
	7650 10150 7700 10150
Wire Wire Line
	8300 10850 8950 10850
Wire Wire Line
	7550 10650 7550 10850
Wire Wire Line
	8950 10850 9150 10850
Wire Wire Line
	9150 10850 9350 10850
Wire Wire Line
	9350 10850 9650 10850
Wire Wire Line
	10450 10850 10600 10850
Wire Wire Line
	10450 10100 10450 10150
Wire Wire Line
	8950 9400 9150 9400
Wire Wire Line
	10600 10850 10850 10850
Wire Wire Line
	9150 9850 9250 9850
Wire Wire Line
	9250 9850 9300 9850
Wire Wire Line
	9650 10850 10000 10850
Wire Wire Line
	9350 10350 10350 10350
Wire Wire Line
	10450 9400 10850 9400
Wire Wire Line
	9650 9850 9700 9850
Wire Wire Line
	9800 9400 10000 9400
Wire Wire Line
	10000 10850 10450 10850
Wire Wire Line
	10850 9400 11000 9400
Wire Wire Line
	2600 5050 2600 5450
Wire Wire Line
	12100 2700 12100 2800
Wire Wire Line
	8950 2700 8950 2800
Wire Wire Line
	8950 5050 8950 5450
Wire Wire Line
	11000 9400 11250 9400
Wire Notes Line
	11450 6600 16050 6600
Connection ~ 14200 2100
Text Label 6250 2900 0    50   ~ 0
HV
Wire Wire Line
	2600 5050 2300 5050
Wire Wire Line
	6500 3400 6500 3500
Wire Wire Line
	6500 3900 7050 3900
Wire Wire Line
	6250 3800 6250 4000
Wire Wire Line
	6500 3800 6500 3900
Wire Wire Line
	6250 3100 6250 3000
Wire Wire Line
	6250 3000 6500 3000
Wire Wire Line
	6500 3000 6500 3100
Wire Wire Line
	6250 3000 6250 2900
Connection ~ 6250 3000
Wire Wire Line
	6250 4000 7050 4000
Wire Wire Line
	6250 3400 6250 3500
Wire Wire Line
	9650 3800 9650 3900
Wire Wire Line
	9650 3900 10200 3900
Wire Wire Line
	9400 4000 9400 3800
Wire Wire Line
	9400 4000 10200 4000
Wire Wire Line
	9400 3400 9400 3500
Wire Wire Line
	9650 3400 9650 3500
Wire Wire Line
	9400 3100 9400 3000
Wire Wire Line
	9400 3000 9650 3000
Wire Wire Line
	9650 3000 9650 3100
Wire Wire Line
	9400 3000 9400 2900
Connection ~ 9400 3000
Text Label 9400 2900 0    50   ~ 0
HV
Text Notes 1950 7350 0    70   ~ 0
NeoPixel back lights
Text Notes 1300 5050 0    70   ~ 0
Tubes
Wire Notes Line
	500  7000 11450 7000
Wire Notes Line
	500  4700 12600 4700
Wire Notes Line
	12600 500  12600 6600
Wire Notes Line
	5700 4700 5700 500 
Text Notes 6050 4450 0    60   ~ 0
Display drivers
Text Notes 13950 2600 0    60   ~ 0
I2C interface (3V3)
Text Notes 13600 3650 0    60   ~ 0
Front panel
Text Label 14700 3800 0    65   ~ 0
VCC
Wire Wire Line
	3800 10700 4450 10700
Wire Wire Line
	5100 10700 4850 10700
Connection ~ 5100 10700
Connection ~ 4850 10700
Wire Wire Line
	4850 9700 5150 9700
$Comp
L Timer_RTC:DS1307+ U5
U 1 1 5C33BC5B
P 10650 5600
F 0 "U5" H 10500 5600 50  0000 L CNN
F 1 "DS1307+" H 10200 5200 50  0000 L CNN
F 2 "NixieClockMaster:DS1307_DIL8" H 10650 5100 50  0001 C CNN
F 3 "https://datasheets.maximintegrated.com/en/ds/DS1307.pdf" H 10650 5400 50  0001 C CNN
	1    10650 5600
	1    0    0    -1  
$EndComp
$Comp
L Device:Crystal_Small Y1
U 1 1 5C33C105
P 9800 5750
F 0 "Y1" V 9800 5850 50  0000 L CNN
F 1 "32.768kHz" V 10000 5550 50  0000 L CNN
F 2 "NixieClockMaster:Crystal_DS10_d1.0mm_l4.3mm_Horizontal" H 9800 5750 50  0001 C CNN
F 3 "~" H 9800 5750 50  0001 C CNN
	1    9800 5750
	0    1    1    0   
$EndComp
Wire Wire Line
	10150 5700 10050 5700
Wire Wire Line
	10050 5700 10050 5600
Wire Wire Line
	10050 5600 9800 5600
Wire Wire Line
	9800 5600 9800 5650
Wire Wire Line
	10150 5800 10050 5800
Wire Wire Line
	10050 5800 10050 5900
Wire Wire Line
	10050 5900 9800 5900
Wire Wire Line
	9800 5900 9800 5850
Text Label 9600 5400 0    50   ~ 0
SCL
Text Label 9600 5500 0    50   ~ 0
SDA
$Comp
L Device:C C21
U 1 1 5C4702AC
P 11300 5550
F 0 "C21" H 11415 5596 50  0000 L CNN
F 1 "100nF" H 11415 5505 50  0000 L CNN
F 2 "NixieClockMaster:C025-024X044" H 11338 5400 50  0001 C CNN
F 3 "~" H 11300 5550 50  0001 C CNN
	1    11300 5550
	1    0    0    -1  
$EndComp
NoConn ~ 11150 5600
Wire Wire Line
	11300 5700 11300 6100
Wire Wire Line
	11300 6100 10650 6100
Wire Wire Line
	10650 6100 10650 6000
Wire Wire Line
	11300 5400 11300 5000
Wire Wire Line
	11300 5000 10550 5000
Wire Wire Line
	10550 5000 10550 5200
Connection ~ 10550 5000
Text Label 10350 5000 0    50   ~ 0
VCC
$Comp
L power:GND #PWR07
U 1 1 5C5F7C27
P 10650 6200
F 0 "#PWR07" H 10650 5950 50  0001 C CNN
F 1 "GND" H 10650 6050 50  0000 C CNN
F 2 "" H 10650 6200 50  0000 C CNN
F 3 "" H 10650 6200 50  0000 C CNN
	1    10650 6200
	1    0    0    -1  
$EndComp
Wire Wire Line
	10650 6100 10650 6200
Connection ~ 10650 6100
$Comp
L Device:Battery_Cell BT1
U 1 1 5C647529
P 11800 5650
F 0 "BT1" H 11918 5746 50  0000 L CNN
F 1 "Battery_Cell" H 11918 5655 50  0000 L CNN
F 2 "NixieClockMaster:CR1220-CoinCell" V 11800 5710 50  0001 C CNN
F 3 "~" V 11800 5710 50  0001 C CNN
	1    11800 5650
	1    0    0    -1  
$EndComp
Wire Wire Line
	11300 6100 11800 6100
Wire Wire Line
	11800 6100 11800 5750
Connection ~ 11300 6100
Wire Wire Line
	11800 5450 11800 5100
Wire Wire Line
	11800 5100 10650 5100
Wire Wire Line
	10650 5100 10650 5200
$Comp
L power:PWR_FLAG #FLG0101
U 1 1 5C6E83E9
P 11800 5000
F 0 "#FLG0101" H 11800 5075 50  0001 C CNN
F 1 "PWR_FLAG" H 11800 5174 50  0000 C CNN
F 2 "" H 11800 5000 50  0001 C CNN
F 3 "~" H 11800 5000 50  0001 C CNN
	1    11800 5000
	1    0    0    -1  
$EndComp
Wire Wire Line
	11800 5000 11800 5100
Connection ~ 11800 5100
Wire Notes Line
	9400 4700 9400 7000
$Comp
L PrismDDIN18-rescue:WeMos_mini-NixieClockMaster U1
U 1 1 5C458A48
P 13900 8550
F 0 "U1" H 13900 9187 60  0000 C CNN
F 1 "WeMos_mini" H 13900 9081 60  0000 C CNN
F 2 "NixieClockMaster:WeMos_D1_mini_board_flipped" H 14450 7850 60  0001 C CNN
F 3 "" H 14450 7850 60  0000 C CNN
	1    13900 8550
	1    0    0    -1  
$EndComp
$Comp
L Device:C C7
U 1 1 5C458BB4
P 12350 8050
F 0 "C7" H 12465 8096 50  0000 L CNN
F 1 "100nF" H 12400 7950 50  0000 L CNN
F 2 "NixieClockMaster:C025-024X044" H 12388 7900 50  0001 C CNN
F 3 "~" H 12350 8050 50  0001 C CNN
	1    12350 8050
	1    0    0    -1  
$EndComp
$Comp
L Device:CP C8
U 1 1 5C458D04
P 12750 8050
F 0 "C8" H 12868 8096 50  0000 L CNN
F 1 "220uF" H 12800 7950 50  0000 L CNN
F 2 "NixieClockMaster:C_Radial_D6.3_L11.2_P2.5" H 12788 7900 50  0001 C CNN
F 3 "~" H 12750 8050 50  0001 C CNN
	1    12750 8050
	1    0    0    -1  
$EndComp
Wire Wire Line
	13100 7800 12750 7800
Wire Wire Line
	12350 7800 12350 7900
Wire Wire Line
	12750 7900 12750 7800
Connection ~ 12750 7800
Wire Wire Line
	12750 7800 12350 7800
Wire Wire Line
	12350 8200 12350 8300
Wire Wire Line
	12350 8300 12750 8300
Wire Wire Line
	12750 8200 12750 8300
Connection ~ 12750 8300
Wire Wire Line
	12750 7800 12750 7550
Wire Wire Line
	12750 7550 12950 7550
Text Label 12950 7550 0    50   ~ 0
VCC
Wire Wire Line
	12750 8300 13400 8300
Wire Wire Line
	13400 8200 13100 8200
Wire Wire Line
	13100 7800 13100 8200
Wire Wire Line
	13400 8400 13050 8400
Wire Wire Line
	13400 8500 13050 8500
Wire Wire Line
	13400 8600 13050 8600
Wire Wire Line
	13400 8700 13050 8700
Wire Wire Line
	13400 8800 13050 8800
Text Label 14950 8200 2    50   ~ 0
3V3
NoConn ~ 14400 8900
NoConn ~ 13400 8900
Wire Wire Line
	11900 2400 12100 2400
Text Label 12100 2200 0    50   ~ 0
DATA1
NoConn ~ 14400 8300
$Comp
L power:GND #PWR0101
U 1 1 5C9FB548
P 12750 8450
F 0 "#PWR0101" H 12750 8200 50  0001 C CNN
F 1 "GND" H 12750 8300 50  0000 C CNN
F 2 "" H 12750 8450 50  0000 C CNN
F 3 "" H 12750 8450 50  0000 C CNN
	1    12750 8450
	1    0    0    -1  
$EndComp
Wire Wire Line
	12750 8450 12750 8300
Wire Wire Line
	14400 8200 14650 8200
Wire Wire Line
	14400 8400 14950 8400
Wire Wire Line
	14400 8500 14950 8500
Wire Wire Line
	14400 8600 14950 8600
Wire Wire Line
	14400 8700 14950 8700
Wire Wire Line
	14400 8800 14950 8800
$Comp
L Connector_Generic:Conn_01x03 J1
U 1 1 5CB78960
P 14050 5300
F 0 "J1" H 13970 4975 50  0000 C CNN
F 1 "Conn_01x03" H 13970 5066 50  0000 C CNN
F 2 "NixieClockMaster:Header_MA03-1_Small" H 14050 5300 50  0001 C CNN
F 3 "~" H 14050 5300 50  0001 C CNN
	1    14050 5300
	-1   0    0    1   
$EndComp
Wire Wire Line
	14250 5400 14650 5400
Wire Wire Line
	14250 5300 14650 5300
Wire Wire Line
	14250 5200 14650 5200
Text Label 14650 5200 2    50   ~ 0
VCC
Text Label 14650 5300 2    50   ~ 0
GND
Text Label 14650 5400 2    50   ~ 0
LED_DATA
Text Notes 13850 4850 0    60   ~ 0
NeoPixel Test Point
$Comp
L Transistor_FET:2N7000 Q2
U 1 1 5CCF4DB0
P 3100 1350
F 0 "Q2" V 3050 1500 50  0000 C CNN
F 1 "2N7000" V 3350 1350 50  0000 C CNN
F 2 "NixieClockMaster:TO-92_inline_2N7000" H 3300 1275 50  0001 L CIN
F 3 "https://www.fairchildsemi.com/datasheets/2N/2N7000.pdf" H 3100 1350 50  0001 L CNN
	1    3100 1350
	0    1    1    0   
$EndComp
$Comp
L Device:R R10
U 1 1 5CD283FB
P 2750 1200
F 0 "R10" H 2820 1246 50  0000 L CNN
F 1 "10k" H 2820 1155 50  0000 L CNN
F 2 "NixieClockMaster:R-0207_2V" V 2680 1200 50  0001 C CNN
F 3 "~" H 2750 1200 50  0001 C CNN
	1    2750 1200
	1    0    0    -1  
$EndComp
$Comp
L Device:R R11
U 1 1 5CD28503
P 3450 1200
F 0 "R11" H 3520 1246 50  0000 L CNN
F 1 "10k" H 3520 1155 50  0000 L CNN
F 2 "NixieClockMaster:R-0207_2V" V 3380 1200 50  0001 C CNN
F 3 "~" H 3450 1200 50  0001 C CNN
	1    3450 1200
	1    0    0    -1  
$EndComp
Wire Wire Line
	2750 850  2750 1000
Wire Wire Line
	2750 1000 3100 1000
Wire Wire Line
	3100 1000 3100 1150
Connection ~ 2750 1000
Wire Wire Line
	2750 1000 2750 1050
Wire Wire Line
	2900 1450 2750 1450
Wire Wire Line
	2750 1450 2750 1350
Connection ~ 2750 1450
Wire Wire Line
	3300 1450 3450 1450
Wire Wire Line
	3450 1450 3450 1350
Wire Wire Line
	3450 1450 3700 1450
Connection ~ 3450 1450
Wire Wire Line
	3450 1050 3450 850 
Wire Wire Line
	3450 850  3600 850 
Text Label 3600 850  0    50   ~ 0
VCC
Text Label 2250 850  0    50   ~ 0
3V3
Text Label 2250 1450 0    50   ~ 0
DATA1_3V3
Wire Wire Line
	2250 1450 2750 1450
Wire Wire Line
	2250 850  2750 850 
Text Label 3700 1450 2    50   ~ 0
DATA1
$Comp
L Transistor_FET:2N7000 Q3
U 1 1 5CFB6A40
P 3150 2250
F 0 "Q3" V 3100 2400 50  0000 C CNN
F 1 "2N7000" V 3400 2250 50  0000 C CNN
F 2 "NixieClockMaster:TO-92_inline_2N7000" H 3350 2175 50  0001 L CIN
F 3 "https://www.fairchildsemi.com/datasheets/2N/2N7000.pdf" H 3150 2250 50  0001 L CNN
	1    3150 2250
	0    1    1    0   
$EndComp
$Comp
L Device:R R12
U 1 1 5CFB6A46
P 2800 2100
F 0 "R12" H 2870 2146 50  0000 L CNN
F 1 "10k" H 2870 2055 50  0000 L CNN
F 2 "NixieClockMaster:R-0207_2V" V 2730 2100 50  0001 C CNN
F 3 "~" H 2800 2100 50  0001 C CNN
	1    2800 2100
	1    0    0    -1  
$EndComp
$Comp
L Device:R R13
U 1 1 5CFB6A4C
P 3500 2100
F 0 "R13" H 3570 2146 50  0000 L CNN
F 1 "10k" H 3570 2055 50  0000 L CNN
F 2 "NixieClockMaster:R-0207_2V" V 3430 2100 50  0001 C CNN
F 3 "~" H 3500 2100 50  0001 C CNN
	1    3500 2100
	1    0    0    -1  
$EndComp
Wire Wire Line
	2800 1750 2800 1900
Wire Wire Line
	2800 1900 3150 1900
Wire Wire Line
	3150 1900 3150 2050
Connection ~ 2800 1900
Wire Wire Line
	2800 1900 2800 1950
Wire Wire Line
	2950 2350 2800 2350
Wire Wire Line
	2800 2350 2800 2250
Connection ~ 2800 2350
Wire Wire Line
	3350 2350 3500 2350
Wire Wire Line
	3500 2350 3500 2250
Wire Wire Line
	3500 2350 3750 2350
Connection ~ 3500 2350
Wire Wire Line
	3500 1950 3500 1750
Wire Wire Line
	3500 1750 3650 1750
Text Label 3650 1750 0    50   ~ 0
VCC
Text Label 2300 1750 0    50   ~ 0
3V3
Text Label 2300 2350 0    50   ~ 0
BLANK_3V3
Wire Wire Line
	2300 2350 2800 2350
Wire Wire Line
	2300 1750 2800 1750
Text Label 3750 2350 2    50   ~ 0
BLANK
$Comp
L Transistor_FET:2N7000 Q4
U 1 1 5CFF2A8C
P 3150 3200
F 0 "Q4" V 3100 3350 50  0000 C CNN
F 1 "2N7000" V 3400 3200 50  0000 C CNN
F 2 "NixieClockMaster:TO-92_inline_2N7000" H 3350 3125 50  0001 L CIN
F 3 "https://www.fairchildsemi.com/datasheets/2N/2N7000.pdf" H 3150 3200 50  0001 L CNN
	1    3150 3200
	0    1    1    0   
$EndComp
$Comp
L Device:R R7
U 1 1 5CFF2A92
P 2800 3050
F 0 "R7" H 2870 3096 50  0000 L CNN
F 1 "10k" H 2870 3005 50  0000 L CNN
F 2 "NixieClockMaster:R-0207_2V" V 2730 3050 50  0001 C CNN
F 3 "~" H 2800 3050 50  0001 C CNN
	1    2800 3050
	1    0    0    -1  
$EndComp
$Comp
L Device:R R23
U 1 1 5CFF2A98
P 3500 3050
F 0 "R23" H 3570 3096 50  0000 L CNN
F 1 "10k" H 3570 3005 50  0000 L CNN
F 2 "NixieClockMaster:R-0207_2V" V 3430 3050 50  0001 C CNN
F 3 "~" H 3500 3050 50  0001 C CNN
	1    3500 3050
	1    0    0    -1  
$EndComp
Wire Wire Line
	2800 2700 2800 2850
Wire Wire Line
	2800 2850 3150 2850
Wire Wire Line
	3150 2850 3150 3000
Connection ~ 2800 2850
Wire Wire Line
	2800 2850 2800 2900
Wire Wire Line
	2950 3300 2800 3300
Wire Wire Line
	2800 3300 2800 3200
Connection ~ 2800 3300
Wire Wire Line
	3350 3300 3500 3300
Wire Wire Line
	3500 3300 3500 3200
Wire Wire Line
	3500 3300 3750 3300
Connection ~ 3500 3300
Wire Wire Line
	3500 2900 3500 2700
Wire Wire Line
	3500 2700 3650 2700
Text Label 3650 2700 0    50   ~ 0
VCC
Text Label 2300 2700 0    50   ~ 0
3V3
Text Label 2300 3300 0    50   ~ 0
CLK_3V3
Wire Wire Line
	2300 3300 2800 3300
Wire Wire Line
	2300 2700 2800 2700
Text Label 3750 3300 2    50   ~ 0
CLK
$Comp
L Transistor_FET:2N7000 Q5
U 1 1 5D072361
P 3200 4150
F 0 "Q5" V 3150 4300 50  0000 C CNN
F 1 "2N7000" V 3450 4150 50  0000 C CNN
F 2 "NixieClockMaster:TO-92_inline_2N7000" H 3400 4075 50  0001 L CIN
F 3 "https://www.fairchildsemi.com/datasheets/2N/2N7000.pdf" H 3200 4150 50  0001 L CNN
	1    3200 4150
	0    1    1    0   
$EndComp
$Comp
L Device:R R22
U 1 1 5D072367
P 2850 4000
F 0 "R22" H 2920 4046 50  0000 L CNN
F 1 "10k" H 2920 3955 50  0000 L CNN
F 2 "NixieClockMaster:R-0207_2V" V 2780 4000 50  0001 C CNN
F 3 "~" H 2850 4000 50  0001 C CNN
	1    2850 4000
	1    0    0    -1  
$EndComp
$Comp
L Device:R R24
U 1 1 5D07236D
P 3550 4000
F 0 "R24" H 3620 4046 50  0000 L CNN
F 1 "10k" H 3620 3955 50  0000 L CNN
F 2 "NixieClockMaster:R-0207_2V" V 3480 4000 50  0001 C CNN
F 3 "~" H 3550 4000 50  0001 C CNN
	1    3550 4000
	1    0    0    -1  
$EndComp
Wire Wire Line
	2850 3650 2850 3800
Wire Wire Line
	2850 3800 3200 3800
Wire Wire Line
	3200 3800 3200 3950
Connection ~ 2850 3800
Wire Wire Line
	2850 3800 2850 3850
Wire Wire Line
	3000 4250 2850 4250
Wire Wire Line
	2850 4250 2850 4150
Connection ~ 2850 4250
Wire Wire Line
	3400 4250 3550 4250
Wire Wire Line
	3550 4250 3550 4150
Wire Wire Line
	3550 4250 3800 4250
Connection ~ 3550 4250
Wire Wire Line
	3550 3850 3550 3650
Wire Wire Line
	3550 3650 3700 3650
Text Label 3700 3650 0    50   ~ 0
VCC
Text Label 2350 3650 0    50   ~ 0
3V3
Text Label 2350 4250 0    50   ~ 0
LATCH_3V3
Wire Wire Line
	2350 4250 2850 4250
Wire Wire Line
	2350 3650 2850 3650
Text Label 3800 4250 2    50   ~ 0
LATCH
Text Notes 900  950  0    60   ~ 0
Level shifters
$Comp
L power:PWR_FLAG #FLG0102
U 1 1 5D10371C
P 5150 9650
F 0 "#FLG0102" H 5150 9745 50  0001 C CNN
F 1 "PWR_FLAG" H 5150 9830 50  0000 C CNN
F 2 "" H 5150 9650 50  0000 C CNN
F 3 "" H 5150 9650 50  0000 C CNN
	1    5150 9650
	1    0    0    -1  
$EndComp
Wire Wire Line
	5150 9650 5150 9700
Connection ~ 5150 9700
Wire Wire Line
	5150 9700 5300 9700
Text Notes 13500 7400 0    60   ~ 0
Controller
$Comp
L PrismDDIN18-rescue:TEST_1P W4
U 1 1 5C15B1F7
P 14650 8100
F 0 "W4" H 14650 8370 50  0000 C CNN
F 1 "3V3" H 14650 8300 50  0000 C CNN
F 2 "NixieClockMaster:TESTPAD_P1-13" H 14850 8100 50  0001 C CNN
F 3 "" H 14850 8100 50  0000 C CNN
	1    14650 8100
	1    0    0    -1  
$EndComp
Wire Wire Line
	14650 8100 14650 8200
Connection ~ 14650 8200
Wire Wire Line
	14650 8200 14950 8200
$Comp
L PrismDDIN18-rescue:R R25
U 1 1 5C2469EC
P 9800 5200
F 0 "R25" V 9880 5200 50  0000 C CNN
F 1 "10k" V 9800 5200 50  0000 C CNN
F 2 "NixieClockMaster:R-0207_2V" V 9730 5200 50  0001 C CNN
F 3 "" H 9800 5200 50  0000 C CNN
	1    9800 5200
	1    0    0    -1  
$EndComp
$Comp
L PrismDDIN18-rescue:R R26
U 1 1 5C246B2E
P 10000 5200
F 0 "R26" V 10080 5200 50  0000 C CNN
F 1 "10k" V 10000 5200 50  0000 C CNN
F 2 "NixieClockMaster:R-0207_2V" V 9930 5200 50  0001 C CNN
F 3 "" H 10000 5200 50  0000 C CNN
	1    10000 5200
	1    0    0    -1  
$EndComp
Wire Wire Line
	9600 5400 10000 5400
Wire Wire Line
	9600 5500 9800 5500
Wire Wire Line
	9800 5350 9800 5500
Connection ~ 9800 5500
Wire Wire Line
	9800 5500 10150 5500
Wire Wire Line
	10000 5350 10000 5400
Connection ~ 10000 5400
Wire Wire Line
	10000 5400 10150 5400
Wire Wire Line
	10000 5000 10000 5050
Wire Wire Line
	10000 5000 10550 5000
Wire Wire Line
	10000 5000 9800 5000
Wire Wire Line
	9800 5000 9800 5050
Connection ~ 10000 5000
$EndSCHEMATC
